{
    "name": "GameOfLifeActions",
    "maps": [
        {
            "name": "Inputs",
            "id": "113e4fff-6fdf-4774-8272-709a8363d28d",
            "actions": [
                {
                    "name": "Select",
                    "type": "Button",
                    "id": "db04e551-e13f-484d-a8e6-cb787133aedd",
                    "expectedControlType": "Button",
                    "processors": "",
                    "interactions": "",
                    "initialStateCheck": false
                },
                {
                    "name": "MousePos",
                    "type": "Value",
                    "id": "263bedce-251c-46b4-ad40-86f146d476ba",
                    "expectedControlType": "Vector2",
                    "processors": "",
                    "interactions": "",
                    "initialStateCheck": true
                }
            ],
            "bindings": [
                {
                    "name": "",
                    "id": "3db92829-02f9-4da8-819d-bcfb87ca8801",
                    "path": "<Mouse>/leftButton",
                    "interactions": "",
                    "processors": "",
                    "groups": "",
                    "action": "Select",
                    "isComposite": false,
                    "isPartOfComposite": false
                },
                {
                    "name": "",
                    "id": "3058ab59-4ec7-4535-8740-8fcbd2dc98b3",
                    "path": "<Mouse>/position",
                    "interactions": "",
                    "processors": "",
                    "groups": "",
                    "action": "MousePos",
                    "isComposite": false,
                    "isPartOfComposite": false
                }
            ]
        }
    ],
    "controlSchemes": []
}