%YAML 1.1
%TAG !u! tag:unity3d.com,2011:
--- !u!114 &11400000
MonoBehaviour:
  m_ObjectHideFlags: 0
  m_CorrespondingSourceObject: {fileID: 0}
  m_PrefabInstance: {fileID: 0}
  m_PrefabAsset: {fileID: 0}
  m_GameObject: {fileID: 0}
  m_Enabled: 1
  m_EditorHideFlags: 0
  m_Script: {fileID: 11500000, guid: 051c0db081a7c1e49ba27955daacc2fa, type: 3}
  m_Name: NoiseData_Islands
  m_EditorClassIdentifier: 
  NoiseDataName: Islands
  noiseScaleData: 6
  octavesData: 5
  persistanceData: 0.3
  lacunarityData: 2.4
